69C4E0D86A7B0430D8CDB78070B4C55A
69C4E0D86A7B0430D8CDB78070B4C55A
69C4E0D86A7B0430D8CDB78070B4C55A
69C4E0D86A7B0430D8CDB78070B4C55A
69C4E0D86A7B0430D8CDB78070B4C55A
69C4E0D86A7B0430D8CDB78070B4C55A
69C4E0D86A7B0430D8CDB78070B4C55A
69C4E0D86A7B0430D8CDB78070B4C55A
69C4E0D86A7B0430D8CDB78070B4C55A
69C4E0D86A7B0430D8CDB78070B4C55A
69C4E0D86A7B0430D8CDB78070B4C55A
69C4E0D86A7B0430D8CDB78070B4C55A
69C4E0D86A7B0430D8CDB78070B4C55A
69C4E0D86A7B0430D8CDB78070B4C55A
69C4E0D86A7B0430D8CDB78070B4C55A
69C4E0D86A7B0430D8CDB78070B4C55A
69C4E0D86A7B0430D8CDB78070B4C55A
69C4E0D86A7B0430D8CDB78070B4C55A
69C4E0D86A7B0430D8CDB78070B4C55A
69C4E0D86A7B0430D8CDB78070B4C55A
69C4E0D86A7B0430D8CDB78070B4C55A
69C4E0D86A7B0430D8CDB78070B4C55A
69C4E0D86A7B0430D8CDB78070B4C55A
69C4E0D86A7B0430D8CDB78070B4C55A
69C4E0D86A7B0430D8CDB78070B4C55A
69C4E0D86A7B0430D8CDB78070B4C55A
69C4E0D86A7B0430D8CDB78070B4C55A
69C4E0D86A7B0430D8CDB78070B4C55A
69C4E0D86A7B0430D8CDB78070B4C55A
69C4E0D86A7B0430D8CDB78070B4C55A
69C4E0D86A7B0430D8CDB78070B4C55A
69C4E0D86A7B0430D8CDB78070B4C55A
69C4E0D86A7B0430D8CDB78070B4C55A
69C4E0D86A7B0430D8CDB78070B4C55A
69C4E0D86A7B0430D8CDB78070B4C55A
69C4E0D86A7B0430D8CDB78070B4C55A
69C4E0D86A7B0430D8CDB78070B4C55A
69C4E0D86A7B0430D8CDB78070B4C55A
69C4E0D86A7B0430D8CDB78070B4C55A
69C4E0D86A7B0430D8CDB78070B4C55A
69C4E0D86A7B0430D8CDB78070B4C55A
69C4E0D86A7B0430D8CDB78070B4C55A
69C4E0D86A7B0430D8CDB78070B4C55A
69C4E0D86A7B0430D8CDB78070B4C55A
69C4E0D86A7B0430D8CDB78070B4C55A
69C4E0D86A7B0430D8CDB78070B4C55A
69C4E0D86A7B0430D8CDB78070B4C55A
69C4E0D86A7B0430D8CDB78070B4C55A
69C4E0D86A7B0430D8CDB78070B4C55A
69C4E0D86A7B0430D8CDB78070B4C55A
69C4E0D86A7B0430D8CDB78070B4C55A
69C4E0D86A7B0430D8CDB78070B4C55A
69C4E0D86A7B0430D8CDB78070B4C55A
69C4E0D86A7B0430D8CDB78070B4C55A
69C4E0D86A7B0430D8CDB78070B4C55A
69C4E0D86A7B0430D8CDB78070B4C55A
69C4E0D86A7B0430D8CDB78070B4C55A
69C4E0D86A7B0430D8CDB78070B4C55A
69C4E0D86A7B0430D8CDB78070B4C55A
69C4E0D86A7B0430D8CDB78070B4C55A
69C4E0D86A7B0430D8CDB78070B4C55A
69C4E0D86A7B0430D8CDB78070B4C55A
69C4E0D86A7B0430D8CDB78070B4C55A
69C4E0D86A7B0430D8CDB78070B4C55A
69C4E0D86A7B0430D8CDB78070B4C55A
69C4E0D86A7B0430D8CDB78070B4C55A
69C4E0D86A7B0430D8CDB78070B4C55A
69C4E0D86A7B0430D8CDB78070B4C55A
69C4E0D86A7B0430D8CDB78070B4C55A
69C4E0D86A7B0430D8CDB78070B4C55A
69C4E0D86A7B0430D8CDB78070B4C55A
69C4E0D86A7B0430D8CDB78070B4C55A
69C4E0D86A7B0430D8CDB78070B4C55A
69C4E0D86A7B0430D8CDB78070B4C55A
69C4E0D86A7B0430D8CDB78070B4C55A
69C4E0D86A7B0430D8CDB78070B4C55A
69C4E0D86A7B0430D8CDB78070B4C55A
69C4E0D86A7B0430D8CDB78070B4C55A
69C4E0D86A7B0430D8CDB78070B4C55A
69C4E0D86A7B0430D8CDB78070B4C55A
69C4E0D86A7B0430D8CDB78070B4C55A
69C4E0D86A7B0430D8CDB78070B4C55A
69C4E0D86A7B0430D8CDB78070B4C55A
69C4E0D86A7B0430D8CDB78070B4C55A
69C4E0D86A7B0430D8CDB78070B4C55A
69C4E0D86A7B0430D8CDB78070B4C55A
6FE9E5EAE26CAC585C9F0DBDD5DF6310
69C4E0D86A7B0430D8CDB78070B4C55A
69C4E0D86A7B0430D8CDB78070B4C55A
69C4E0D86A7B0430D8CDB78070B4C55A
69C4E0D86A7B0430D8CDB78070B4C55A
69C4E0D86A7B0430D8CDB78070B4C55A
69C4E0D86A7B0430D8CDB78070B4C55A
69C4E0D86A7B0430D8CDB78070B4C55A
69C4E0D86A7B0430D8CDB78070B4C55A
69C4E0D86A7B0430D8CDB78070B4C55A
69C4E0D86A7B0430D8CDB78070B4C55A
69C4E0D86A7B0430D8CDB78070B4C55A
69C4E0D86A7B0430D8CDB78070B4C55A
69C4E0D86A7B0430D8CDB78070B4C55A
69C4E0D86A7B0430D8CDB78070B4C55A
69C4E0D86A7B0430D8CDB78070B4C55A
69C4E0D86A7B0430D8CDB78070B4C55A
69C4E0D86A7B0430D8CDB78070B4C55A
69C4E0D86A7B0430D8CDB78070B4C55A
69C4E0D86A7B0430D8CDB78070B4C55A
69C4E0D86A7B0430D8CDB78070B4C55A
69C4E0D86A7B0430D8CDB78070B4C55A
69C4E0D86A7B0430D8CDB78070B4C55A
69C4E0D86A7B0430D8CDB78070B4C55A
69C4E0D86A7B0430D8CDB78070B4C55A
69C4E0D86A7B0430D8CDB78070B4C55A
69C4E0D86A7B0430D8CDB78070B4C55A
69C4E0D86A7B0430D8CDB78070B4C55A
69C4E0D86A7B0430D8CDB78070B4C55A
69C4E0D86A7B0430D8CDB78070B4C55A
69C4E0D86A7B0430D8CDB78070B4C55A
69C4E0D86A7B0430D8CDB78070B4C55A
69C4E0D86A7B0430D8CDB78070B4C55A
69C4E0D86A7B0430D8CDB78070B4C55A
69C4E0D86A7B0430D8CDB78070B4C55A
69C4E0D86A7B0430D8CDB78070B4C55A
69C4E0D86A7B0430D8CDB78070B4C55A
69C4E0D86A7B0430D8CDB78070B4C55A
69C4E0D86A7B0430D8CDB78070B4C55A
69C4E0D86A7B0430D8CDB78070B4C55A
69C4E0D86A7B0430D8CDB78070B4C55A
69C4E0D86A7B0430D8CDB78070B4C55A
69C4E0D86A7B0430D8CDB78070B4C55A
69C4E0D86A7B0430D8CDB78070B4C55A
69C4E0D86A7B0430D8CDB78070B4C55A
69C4E0D86A7B0430D8CDB78070B4C55A
69C4E0D86A7B0430D8CDB78070B4C55A
69C4E0D86A7B0430D8CDB78070B4C55A
69C4E0D86A7B0430D8CDB78070B4C55A
69C4E0D86A7B0430D8CDB78070B4C55A
69C4E0D86A7B0430D8CDB78070B4C55A
69C4E0D86A7B0430D8CDB78070B4C55A
69C4E0D86A7B0430D8CDB78070B4C55A
69C4E0D86A7B0430D8CDB78070B4C55A
69C4E0D86A7B0430D8CDB78070B4C55A
69C4E0D86A7B0430D8CDB78070B4C55A
69C4E0D86A7B0430D8CDB78070B4C55A
4855DD3B7BE24065ADBED4B41B376549
69C4E0D86A7B0430D8CDB78070B4C55A
69C4E0D86A7B0430D8CDB78070B4C55A
69C4E0D86A7B0430D8CDB78070B4C55A
69C4E0D86A7B0430D8CDB78070B4C55A
69C4E0D86A7B0430D8CDB78070B4C55A
69C4E0D86A7B0430D8CDB78070B4C55A
69C4E0D86A7B0430D8CDB78070B4C55A
69C4E0D86A7B0430D8CDB78070B4C55A
69C4E0D86A7B0430D8CDB78070B4C55A
69C4E0D86A7B0430D8CDB78070B4C55A
69C4E0D86A7B0430D8CDB78070B4C55A
69C4E0D86A7B0430D8CDB78070B4C55A
69C4E0D86A7B0430D8CDB78070B4C55A
69C4E0D86A7B0430D8CDB78070B4C55A
69C4E0D86A7B0430D8CDB78070B4C55A
69C4E0D86A7B0430D8CDB78070B4C55A
69C4E0D86A7B0430D8CDB78070B4C55A
69C4E0D86A7B0430D8CDB78070B4C55A
69C4E0D86A7B0430D8CDB78070B4C55A
69C4E0D86A7B0430D8CDB78070B4C55A
69C4E0D86A7B0430D8CDB78070B4C55A
69C4E0D86A7B0430D8CDB78070B4C55A
69C4E0D86A7B0430D8CDB78070B4C55A
69C4E0D86A7B0430D8CDB78070B4C55A
69C4E0D86A7B0430D8CDB78070B4C55A
69C4E0D86A7B0430D8CDB78070B4C55A
69C4E0D86A7B0430D8CDB78070B4C55A
69C4E0D86A7B0430D8CDB78070B4C55A
69C4E0D86A7B0430D8CDB78070B4C55A
69C4E0D86A7B0430D8CDB78070B4C55A
69C4E0D86A7B0430D8CDB78070B4C55A
69C4E0D86A7B0430D8CDB78070B4C55A
69C4E0D86A7B0430D8CDB78070B4C55A
69C4E0D86A7B0430D8CDB78070B4C55A
69C4E0D86A7B0430D8CDB78070B4C55A
69C4E0D86A7B0430D8CDB78070B4C55A
69C4E0D86A7B0430D8CDB78070B4C55A
69C4E0D86A7B0430D8CDB78070B4C55A
69C4E0D86A7B0430D8CDB78070B4C55A
69C4E0D86A7B0430D8CDB78070B4C55A
69C4E0D86A7B0430D8CDB78070B4C55A
69C4E0D86A7B0430D8CDB78070B4C55A
69C4E0D86A7B0430D8CDB78070B4C55A
69C4E0D86A7B0430D8CDB78070B4C55A
69C4E0D86A7B0430D8CDB78070B4C55A
