00112233445566778899AABBCCDDEEFF
00112233445566778899AABBCCDDEEFF
00112233445566778899AABBCCDDEEFF
00112233445566778899AABBCCDDEEFF
00112233445566778899AABBCCDDEEFF
00112233445566778899AABBCCDDEEFF
00112233445566778899AABBCCDDEEFF
00112233445566778899AABBCCDDEEFF
00112233445566778899AABBCCDDEEFF
00112233445566778899AABBCCDDEEFF
00112233445566778899AABBCCDDEEFF
00112233445566778899AABBCCDDEEFF
00112233445566778899AABBCCDDEEFF
00112233445566778899AABBCCDDEEFF
00112233445566778899AABBCCDDEEFF
00112233445566778899AABBCCDDEEFF
00112233445566778899AABBCCDDEEFF
00112233445566778899AABBCCDDEEFF
00112233445566778899AABBCCDDEEFF
00112233445566778899AABBCCDDEEFF
00112233445566778899AABBCCDDEEFF
00112233445566778899AABBCCDDEEFF
00112233445566778899AABBCCDDEEFF
00112233445566778899AABBCCDDEEFF
00112233445566778899AABBCCDDEEFF
00112233445566778899AABBCCDDEEFF
00112233445566778899AABBCCDDEEFF
00112233445566778899AABBCCDDEEFF
00112233445566778899AABBCCDDEEFF
00112233445566778899AABBCCDDEEFF
00112233445566778899AABBCCDDEEFF
00112233445566778899AABBCCDDEEFF
00112233445566778899AABBCCDDEEFF
00112233445566778899AABBCCDDEEFF
00112233445566778899AABBCCDDEEFF
00112233445566778899AABBCCDDEEFF
00112233445566778899AABBCCDDEEFF
00112233445566778899AABBCCDDEEFF
00112233445566778899AABBCCDDEEFF
00112233445566778899AABBCCDDEEFF
00112233445566778899AABBCCDDEEFF
00112233445566778899AABBCCDDEEFF
00112233445566778899AABBCCDDEEFF
00112233445566778899AABBCCDDEEFF
00112233445566778899AABBCCDDEEFF
00112233445566778899AABBCCDDEEFF
00112233445566778899AABBCCDDEEFF
00112233445566778899AABBCCDDEEFF
00112233445566778899AABBCCDDEEFF
00112233445566778899AABBCCDDEEFF
00112233445566778899AABBCCDDEEFF
00112233445566778899AABBCCDDEEFF
00112233445566778899AABBCCDDEEFF
00112233445566778899AABBCCDDEEFF
00112233445566778899AABBCCDDEEFF
00112233445566778899AABBCCDDEEFF
00112233445566778899AABBCCDDEEFF
00112233445566778899AABBCCDDEEFF
00112233445566778899AABBCCDDEEFF
00112233445566778899AABBCCDDEEFF
00112233445566778899AABBCCDDEEFF
00112233445566778899AABBCCDDEEFF
00112233445566778899AABBCCDDEEFF
00112233445566778899AABBCCDDEEFF
00112233445566778899AABBCCDDEEFF
00112233445566778899AABBCCDDEEFF
00112233445566778899AABBCCDDEEFF
00112233445566778899AABBCCDDEEFF
00112233445566778899AABBCCDDEEFF
00112233445566778899AABBCCDDEEFF
00112233445566778899AABBCCDDEEFF
00112233445566778899AABBCCDDEEFF
00112233445566778899AABBCCDDEEFF
00112233445566778899AABBCCDDEEFF
00112233445566778899AABBCCDDEEFF
00112233445566778899AABBCCDDEEFF
00112233445566778899AABBCCDDEEFF
00112233445566778899AABBCCDDEEFF
00112233445566778899AABBCCDDEEFF
00112233445566778899AABBCCDDEEFF
00112233445566778899AABBCCDDEEFF
00112233445566778899AABBCCDDEEFF
00112233445566778899AABBCCDDEEFF
00112233445566778899AABBCCDDEEFF
00112233445566778899AABBCCDDEEFF
00112233445566778899AABBCCDDEEFF
00112233445566778899AABBCCDDEEFF
00112233445566778899AABBCCDDEEFF
00112233445566778899AABBCCDDEEFF
00112233445566778899AABBCCDDEEFF
00112233445566778899AABBCCDDEEFF
00112233445566778899AABBCCDDEEFF
00112233445566778899AABBCCDDEEFF
00112233445566778899AABBCCDDEEFF
00112233445566778899AABBCCDDEEFF
00112233445566778899AABBCCDDEEFF
00112233445566778899AABBCCDDEEFF
00112233445566778899AABBCCDDEEFF
00112233445566778899AABBCCDDEEFF
00112233445566778899AABBCCDDEEFF
00112233445566778899AABBCCDDEEFF
00112233445566778899AABBCCDDEEFF
00112233445566778899AABBCCDDEEFF
00112233445566778899AABBCCDDEEFF
00112233445566778899AABBCCDDEEFF
00112233445566778899AABBCCDDEEFF
00112233445566778899AABBCCDDEEFF
00112233445566778899AABBCCDDEEFF
00112233445566778899AABBCCDDEEFF
00112233445566778899AABBCCDDEEFF
00112233445566778899AABBCCDDEEFF
00112233445566778899AABBCCDDEEFF
00112233445566778899AABBCCDDEEFF
00112233445566778899AABBCCDDEEFF
00112233445566778899AABBCCDDEEFF
00112233445566778899AABBCCDDEEFF
00112233445566778899AABBCCDDEEFF
00112233445566778899AABBCCDDEEFF
00112233445566778899AABBCCDDEEFF
00112233445566778899AABBCCDDEEFF
00112233445566778899AABBCCDDEEFF
00112233445566778899AABBCCDDEEFF
00112233445566778899AABBCCDDEEFF
00112233445566778899AABBCCDDEEFF
00112233445566778899AABBCCDDEEFF
00112233445566778899AABBCCDDEEFF
00112233445566778899AABBCCDDEEFF
00112233445566778899AABBCCDDEEFF
00112233445566778899AABBCCDDEEFF
00112233445566778899AABBCCDDEEFF
00112233445566778899AABBCCDDEEFF
00112233445566778899AABBCCDDEEFF
00112233445566778899AABBCCDDEEFF
00112233445566778899AABBCCDDEEFF
00112233445566778899AABBCCDDEEFF
00112233445566778899AABBCCDDEEFF
00112233445566778899AABBCCDDEEFF
00112233445566778899AABBCCDDEEFF
00112233445566778899AABBCCDDEEFF
00112233445566778899AABBCCDDEEFF
00112233445566778899AABBCCDDEEFF
00112233445566778899AABBCCDDEEFF
00112233445566778899AABBCCDDEEFF
00112233445566778899AABBCCDDEEFF
00112233445566778899AABBCCDDEEFF
00112233445566778899AABBCCDDEEFF
00112233445566778899AABBCCDDEEFF
00112233445566778899AABBCCDDEEFF
00112233445566778899AABBCCDDEEFF
00112233445566778899AABBCCDDEEFF
00112233445566778899AABBCCDDEEFF
00112233445566778899AABBCCDDEEFF
00112233445566778899AABBCCDDEEFF
00112233445566778899AABBCCDDEEFF
00112233445566778899AABBCCDDEEFF
00112233445566778899AABBCCDDEEFF
00112233445566778899AABBCCDDEEFF
00112233445566778899AABBCCDDEEFF
00112233445566778899AABBCCDDEEFF
00112233445566778899AABBCCDDEEFF
00112233445566778899AABBCCDDEEFF
00112233445566778899AABBCCDDEEFF
00112233445566778899AABBCCDDEEFF
00112233445566778899AABBCCDDEEFF
00112233445566778899AABBCCDDEEFF
00112233445566778899AABBCCDDEEFF
00112233445566778899AABBCCDDEEFF
00112233445566778899AABBCCDDEEFF
00112233445566778899AABBCCDDEEFF
00112233445566778899AABBCCDDEEFF
00112233445566778899AABBCCDDEEFF
00112233445566778899AABBCCDDEEFF
00112233445566778899AABBCCDDEEFF
00112233445566778899AABBCCDDEEFF
00112233445566778899AABBCCDDEEFF
00112233445566778899AABBCCDDEEFF
00112233445566778899AABBCCDDEEFF
00112233445566778899AABBCCDDEEFF
00112233445566778899AABBCCDDEEFF
00112233445566778899AABBCCDDEEFF
00112233445566778899AABBCCDDEEFF
00112233445566778899AABBCCDDEEFF
00112233445566778899AABBCCDDEEFF
00112233445566778899AABBCCDDEEFF
00112233445566778899AABBCCDDEEFF
00112233445566778899AABBCCDDEEFF
00112233445566778899AABBCCDDEEFF
00112233445566778899AABBCCDDEEFF
00112233445566778899AABBCCDDEEFF
