69C4E0D86A7B0430D8CDB78070B4C55A
6FE9E5EAE26CAC585C9F0DBDD5DF6310
6FE9E5EAE26CAC585C9F0DBDD5DF6310
69C4E0D86A7B0430D8CDB78070B4C55A
69C4E0D86A7B0430D8CDB78070B4C55A
69C4E0D86A7B0430D8CDB78070B4C55A
69C4E0D86A7B0430D8CDB78070B4C55A
69C4E0D86A7B0430D8CDB78070B4C55A
69C4E0D86A7B0430D8CDB78070B4C55A
69C4E0D86A7B0430D8CDB78070B4C55A
69C4E0D86A7B0430D8CDB78070B4C55A
9202BF71E4268ED60135873314190FD0
69C4E0D86A7B0430D8CDB78070B4C55A
9202BF71E4268ED60135873314190FD0
69C4E0D86A7B0430D8CDB78070B4C55A
69C4E0D86A7B0430D8CDB78070B4C55A
69C4E0D86A7B0430D8CDB78070B4C55A
34AF5B97E4BA5AF604295BB3D758EF1D
69C4E0D86A7B0430D8CDB78070B4C55A
69C4E0D86A7B0430D8CDB78070B4C55A
143F85535DC26B850F9FDFC7200545B8
69C4E0D86A7B0430D8CDB78070B4C55A
69C4E0D86A7B0430D8CDB78070B4C55A
69C4E0D86A7B0430D8CDB78070B4C55A
69C4E0D86A7B0430D8CDB78070B4C55A
69C4E0D86A7B0430D8CDB78070B4C55A
7FE0FA149125043E7307404F6A2B113D
69C4E0D86A7B0430D8CDB78070B4C55A
69C4E0D86A7B0430D8CDB78070B4C55A
69C4E0D86A7B0430D8CDB78070B4C55A
69C4E0D86A7B0430D8CDB78070B4C55A
34AF5B97E4BA5AF604295BB3D758EF1D
69C4E0D86A7B0430D8CDB78070B4C55A
69C4E0D86A7B0430D8CDB78070B4C55A
69C4E0D86A7B0430D8CDB78070B4C55A
DF5088FCCA0057FBE8E98EEA0B2408B2
69C4E0D86A7B0430D8CDB78070B4C55A
69C4E0D86A7B0430D8CDB78070B4C55A
1B6B1F5B240A977E397DFA0262535613
6FE9E5EAE26CAC585C9F0DBDD5DF6310
69C4E0D86A7B0430D8CDB78070B4C55A
69C4E0D86A7B0430D8CDB78070B4C55A
F37F8B984EAB0579AFABB4E2F6D1FE76
69C4E0D86A7B0430D8CDB78070B4C55A
69C4E0D86A7B0430D8CDB78070B4C55A
69C4E0D86A7B0430D8CDB78070B4C55A
69C4E0D86A7B0430D8CDB78070B4C55A
69C4E0D86A7B0430D8CDB78070B4C55A
69C4E0D86A7B0430D8CDB78070B4C55A
69C4E0D86A7B0430D8CDB78070B4C55A
69C4E0D86A7B0430D8CDB78070B4C55A
A24741EB1EFB315B649A2F9A637D6B76
69C4E0D86A7B0430D8CDB78070B4C55A
69C4E0D86A7B0430D8CDB78070B4C55A
0A58250AE73F838BFDAC9F2760B1DD0E
9B79758A7DA631C51A4CE5E4B060FBC6
69C4E0D86A7B0430D8CDB78070B4C55A
69C4E0D86A7B0430D8CDB78070B4C55A
69C4E0D86A7B0430D8CDB78070B4C55A
69C4E0D86A7B0430D8CDB78070B4C55A
69C4E0D86A7B0430D8CDB78070B4C55A
DF5088FCCA0057FBE8E98EEA0B2408B2
69C4E0D86A7B0430D8CDB78070B4C55A
69C4E0D86A7B0430D8CDB78070B4C55A
69C4E0D86A7B0430D8CDB78070B4C55A
69C4E0D86A7B0430D8CDB78070B4C55A
DF5088FCCA0057FBE8E98EEA0B2408B2
69C4E0D86A7B0430D8CDB78070B4C55A
69C4E0D86A7B0430D8CDB78070B4C55A
69C4E0D86A7B0430D8CDB78070B4C55A
69C4E0D86A7B0430D8CDB78070B4C55A
69C4E0D86A7B0430D8CDB78070B4C55A
69C4E0D86A7B0430D8CDB78070B4C55A
69C4E0D86A7B0430D8CDB78070B4C55A
69C4E0D86A7B0430D8CDB78070B4C55A
69C4E0D86A7B0430D8CDB78070B4C55A
69C4E0D86A7B0430D8CDB78070B4C55A
69C4E0D86A7B0430D8CDB78070B4C55A
69C4E0D86A7B0430D8CDB78070B4C55A
69C4E0D86A7B0430D8CDB78070B4C55A
A24741EB1EFB315B649A2F9A637D6B76
69C4E0D86A7B0430D8CDB78070B4C55A
69C4E0D86A7B0430D8CDB78070B4C55A
69C4E0D86A7B0430D8CDB78070B4C55A
69C4E0D86A7B0430D8CDB78070B4C55A
69C4E0D86A7B0430D8CDB78070B4C55A
69C4E0D86A7B0430D8CDB78070B4C55A
69C4E0D86A7B0430D8CDB78070B4C55A
69C4E0D86A7B0430D8CDB78070B4C55A
69C4E0D86A7B0430D8CDB78070B4C55A
69C4E0D86A7B0430D8CDB78070B4C55A
69C4E0D86A7B0430D8CDB78070B4C55A
69C4E0D86A7B0430D8CDB78070B4C55A
69C4E0D86A7B0430D8CDB78070B4C55A
69C4E0D86A7B0430D8CDB78070B4C55A
69C4E0D86A7B0430D8CDB78070B4C55A
69C4E0D86A7B0430D8CDB78070B4C55A
69C4E0D86A7B0430D8CDB78070B4C55A
69C4E0D86A7B0430D8CDB78070B4C55A
69C4E0D86A7B0430D8CDB78070B4C55A
69C4E0D86A7B0430D8CDB78070B4C55A
46DC952F09597D1EA5C62677F6EAFFDD
69C4E0D86A7B0430D8CDB78070B4C55A
A24741EB1EFB315B649A2F9A637D6B76
69C4E0D86A7B0430D8CDB78070B4C55A
69C4E0D86A7B0430D8CDB78070B4C55A
69C4E0D86A7B0430D8CDB78070B4C55A
69C4E0D86A7B0430D8CDB78070B4C55A
69C4E0D86A7B0430D8CDB78070B4C55A
69C4E0D86A7B0430D8CDB78070B4C55A
69C4E0D86A7B0430D8CDB78070B4C55A
6FE9E5EAE26CAC585C9F0DBDD5DF6310
69C4E0D86A7B0430D8CDB78070B4C55A
69C4E0D86A7B0430D8CDB78070B4C55A
69C4E0D86A7B0430D8CDB78070B4C55A
A24741EB1EFB315B649A2F9A637D6B76
69C4E0D86A7B0430D8CDB78070B4C55A
69C4E0D86A7B0430D8CDB78070B4C55A
69C4E0D86A7B0430D8CDB78070B4C55A
69C4E0D86A7B0430D8CDB78070B4C55A
69C4E0D86A7B0430D8CDB78070B4C55A
69C4E0D86A7B0430D8CDB78070B4C55A
69C4E0D86A7B0430D8CDB78070B4C55A
DD1B1C6D9B9E31F3E90D84973D6ED08A
69C4E0D86A7B0430D8CDB78070B4C55A
DD1B1C6D9B9E31F3E90D84973D6ED08A
69C4E0D86A7B0430D8CDB78070B4C55A
69C4E0D86A7B0430D8CDB78070B4C55A
69C4E0D86A7B0430D8CDB78070B4C55A
34AF5B97E4BA5AF604295BB3D758EF1D
69C4E0D86A7B0430D8CDB78070B4C55A
69C4E0D86A7B0430D8CDB78070B4C55A
69C4E0D86A7B0430D8CDB78070B4C55A
69C4E0D86A7B0430D8CDB78070B4C55A
69C4E0D86A7B0430D8CDB78070B4C55A
FC51F12C4CD44D570763643E42E44842
69C4E0D86A7B0430D8CDB78070B4C55A
69C4E0D86A7B0430D8CDB78070B4C55A
69C4E0D86A7B0430D8CDB78070B4C55A
815AF7C9FE4DAC46F5DE923D2CA73805
69C4E0D86A7B0430D8CDB78070B4C55A
69C4E0D86A7B0430D8CDB78070B4C55A
69C4E0D86A7B0430D8CDB78070B4C55A
1631E40F0EC36A23CFC34282EEEF6DDE
69C4E0D86A7B0430D8CDB78070B4C55A
69C4E0D86A7B0430D8CDB78070B4C55A
69C4E0D86A7B0430D8CDB78070B4C55A
69C4E0D86A7B0430D8CDB78070B4C55A
69C4E0D86A7B0430D8CDB78070B4C55A
69C4E0D86A7B0430D8CDB78070B4C55A
69C4E0D86A7B0430D8CDB78070B4C55A
69C4E0D86A7B0430D8CDB78070B4C55A
69C4E0D86A7B0430D8CDB78070B4C55A
69C4E0D86A7B0430D8CDB78070B4C55A
69C4E0D86A7B0430D8CDB78070B4C55A
69C4E0D86A7B0430D8CDB78070B4C55A
69C4E0D86A7B0430D8CDB78070B4C55A
69C4E0D86A7B0430D8CDB78070B4C55A
69C4E0D86A7B0430D8CDB78070B4C55A
69C4E0D86A7B0430D8CDB78070B4C55A
69C4E0D86A7B0430D8CDB78070B4C55A
69C4E0D86A7B0430D8CDB78070B4C55A
69C4E0D86A7B0430D8CDB78070B4C55A
69C4E0D86A7B0430D8CDB78070B4C55A
54B48EA5B33181A2187489EB303FF436
F37F8B984EAB0579AFABB4E2F6D1FE76
69C4E0D86A7B0430D8CDB78070B4C55A
69C4E0D86A7B0430D8CDB78070B4C55A
69C4E0D86A7B0430D8CDB78070B4C55A
69C4E0D86A7B0430D8CDB78070B4C55A
69C4E0D86A7B0430D8CDB78070B4C55A
69C4E0D86A7B0430D8CDB78070B4C55A
69C4E0D86A7B0430D8CDB78070B4C55A
69C4E0D86A7B0430D8CDB78070B4C55A
69C4E0D86A7B0430D8CDB78070B4C55A
69C4E0D86A7B0430D8CDB78070B4C55A
69C4E0D86A7B0430D8CDB78070B4C55A
69C4E0D86A7B0430D8CDB78070B4C55A
69C4E0D86A7B0430D8CDB78070B4C55A
69C4E0D86A7B0430D8CDB78070B4C55A
69C4E0D86A7B0430D8CDB78070B4C55A
69C4E0D86A7B0430D8CDB78070B4C55A
69C4E0D86A7B0430D8CDB78070B4C55A
69C4E0D86A7B0430D8CDB78070B4C55A
69C4E0D86A7B0430D8CDB78070B4C55A
69C4E0D86A7B0430D8CDB78070B4C55A
69C4E0D86A7B0430D8CDB78070B4C55A
69C4E0D86A7B0430D8CDB78070B4C55A
69C4E0D86A7B0430D8CDB78070B4C55A
69C4E0D86A7B0430D8CDB78070B4C55A
69C4E0D86A7B0430D8CDB78070B4C55A
69C4E0D86A7B0430D8CDB78070B4C55A
69C4E0D86A7B0430D8CDB78070B4C55A
69C4E0D86A7B0430D8CDB78070B4C55A
6FE9E5EAE26CAC585C9F0DBDD5DF6310
69C4E0D86A7B0430D8CDB78070B4C55A
