062D05328817A8688452BA3DA56BA64A
E89E17119436A8762D1325BD5C13FD5F
FBC65FA98E5D8AE6D9F830B364ADCA8A
07DB526B8FE83FE13AEF44CCF7BA7245
B6946824A07B53CB3024396A7B90CDE8
B6946824A07B53CB3024396A7B90CDE8
B6946824A07B53CB3024396A7B90CDE8
062D05328817A8688452BA3DA56BA64A
FBC65FA98E5D8AE6D9F830B364ADCA8A
062D05328817A8688452BA3DA56BA64A
07DB526B8FE83FE13AEF44CCF7BA7245
B6946824A07B53CB3024396A7B90CDE8
5D6BBB4F8EC15EC6DCE4EC33A7EC2A47
B6946824A07B53CB3024396A7B90CDE8
B4DFFCB5F1E535C331C033174DDA15D0
B6946824A07B53CB3024396A7B90CDE8
3B09A048B7337B3829169ECF04714D87
8ECC43E7099AA24052BF5D6C589F9469
39757B2C9A4F2D9FACB8D72BF7784845
B6946824A07B53CB3024396A7B90CDE8
E89E17119436A8762D1325BD5C13FD5F
A97B57A72C41033FE639F5E890986F52
B6946824A07B53CB3024396A7B90CDE8
E89E17119436A8762D1325BD5C13FD5F
0091C68BDF2BC31E4E0E442ACF7C1D98
EECDCB94E575346D145059998D872413
E89E17119436A8762D1325BD5C13FD5F
B6946824A07B53CB3024396A7B90CDE8
3EB4BC8FABDA784AAC0FBDACDC5ABAD3
B6946824A07B53CB3024396A7B90CDE8
B6946824A07B53CB3024396A7B90CDE8
CB83A1337480356BBC57981A13C9AE2C
062D05328817A8688452BA3DA56BA64A
062D05328817A8688452BA3DA56BA64A
E89E17119436A8762D1325BD5C13FD5F
39757B2C9A4F2D9FACB8D72BF7784845
B6946824A07B53CB3024396A7B90CDE8
39757B2C9A4F2D9FACB8D72BF7784845
062D05328817A8688452BA3DA56BA64A
A1EA2472948D6B35C6EA5C24C99F2948
062D05328817A8688452BA3DA56BA64A
CB83A1337480356BBC57981A13C9AE2C
39757B2C9A4F2D9FACB8D72BF7784845
FF125C0A875C5AE4A3A2B129C0F79838
B6946824A07B53CB3024396A7B90CDE8
39757B2C9A4F2D9FACB8D72BF7784845
B6946824A07B53CB3024396A7B90CDE8
3D3389A79831CA961B77F07F23CFCD94
B6946824A07B53CB3024396A7B90CDE8
E89E17119436A8762D1325BD5C13FD5F
B6946824A07B53CB3024396A7B90CDE8
39757B2C9A4F2D9FACB8D72BF7784845
39757B2C9A4F2D9FACB8D72BF7784845
39757B2C9A4F2D9FACB8D72BF7784845
B6946824A07B53CB3024396A7B90CDE8
CB83A1337480356BBC57981A13C9AE2C
8ECC43E7099AA24052BF5D6C589F9469
8ECC43E7099AA24052BF5D6C589F9469
B6946824A07B53CB3024396A7B90CDE8
E89E17119436A8762D1325BD5C13FD5F
39757B2C9A4F2D9FACB8D72BF7784845
E89E17119436A8762D1325BD5C13FD5F
8ECC43E7099AA24052BF5D6C589F9469
E89E17119436A8762D1325BD5C13FD5F
3D3389A79831CA961B77F07F23CFCD94
B6946824A07B53CB3024396A7B90CDE8
8ECC43E7099AA24052BF5D6C589F9469
FBC65FA98E5D8AE6D9F830B364ADCA8A
8ECC43E7099AA24052BF5D6C589F9469
B6946824A07B53CB3024396A7B90CDE8
062D05328817A8688452BA3DA56BA64A
E89E17119436A8762D1325BD5C13FD5F
062D05328817A8688452BA3DA56BA64A
B6946824A07B53CB3024396A7B90CDE8
EECDCB94E575346D145059998D872413
FF125C0A875C5AE4A3A2B129C0F79838
EECDCB94E575346D145059998D872413
B6946824A07B53CB3024396A7B90CDE8
E89E17119436A8762D1325BD5C13FD5F
FBC65FA98E5D8AE6D9F830B364ADCA8A
3D3389A79831CA961B77F07F23CFCD94
E89E17119436A8762D1325BD5C13FD5F
39757B2C9A4F2D9FACB8D72BF7784845
EECDCB94E575346D145059998D872413
5D6BBB4F8EC15EC6DCE4EC33A7EC2A47
B4DFFCB5F1E535C331C033174DDA15D0
5D6BBB4F8EC15EC6DCE4EC33A7EC2A47
3D3389A79831CA961B77F07F23CFCD94
8B37A432FA241E78082C3849E07928A1
3D706E7DD94A8592C0B93E6B408B316C
CB83A1337480356BBC57981A13C9AE2C
CEE9F3A0711072DB565968E445A3DCF8
B6946824A07B53CB3024396A7B90CDE8
B6946824A07B53CB3024396A7B90CDE8
B6946824A07B53CB3024396A7B90CDE8
B6946824A07B53CB3024396A7B90CDE8
CB83A1337480356BBC57981A13C9AE2C
E89E17119436A8762D1325BD5C13FD5F
B6946824A07B53CB3024396A7B90CDE8
B6946824A07B53CB3024396A7B90CDE8
B4DFFCB5F1E535C331C033174DDA15D0
5D6BBB4F8EC15EC6DCE4EC33A7EC2A47
39757B2C9A4F2D9FACB8D72BF7784845
8ECC43E7099AA24052BF5D6C589F9469
B4DFFCB5F1E535C331C033174DDA15D0
872D97DC9617DCABC7AEE6C7036996D3
