3861F836F4028C98364615B4E490A573
3861F836F4028C98364615B4E490A573
3861F836F4028C98364615B4E490A573
E4D576DF8961C050FDF249A006667C43
E236F7A2B10FA1E541C61AE5F79AD1EE
3861F836F4028C98364615B4E490A573
E236F7A2B10FA1E541C61AE5F79AD1EE
3861F836F4028C98364615B4E490A573
3861F836F4028C98364615B4E490A573
E236F7A2B10FA1E541C61AE5F79AD1EE
E236F7A2B10FA1E541C61AE5F79AD1EE
E236F7A2B10FA1E541C61AE5F79AD1EE
3861F836F4028C98364615B4E490A573
E236F7A2B10FA1E541C61AE5F79AD1EE
3861F836F4028C98364615B4E490A573
3861F836F4028C98364615B4E490A573
E236F7A2B10FA1E541C61AE5F79AD1EE
3861F836F4028C98364615B4E490A573
